<?xml version="1.0" encoding="UTF-8" standalone="no"?>
<!-- Created with Inkscape (http://www.inkscape.org/) -->

<svg
   xmlns:dc="http://purl.org/dc/elements/1.1/"
   xmlns:cc="http://creativecommons.org/ns#"
   xmlns:rdf="http://www.w3.org/1999/02/22-rdf-syntax-ns#"
   xmlns:svg="http://www.w3.org/2000/svg"
   xmlns="http://www.w3.org/2000/svg"
   xmlns:sodipodi="http://sodipodi.sourceforge.net/DTD/sodipodi-0.dtd"
   xmlns:inkscape="http://www.inkscape.org/namespaces/inkscape"
   width="500"
   height="500"
   viewBox="0 0 132.29166 132.29167"
   version="1.1"
   id="svg1402"
   inkscape:version="0.92.4 (5da689c313, 2019-01-14)"
   sodipodi:docname="hi-gefaess.svg">
  <defs
     id="defs1396" />
  <sodipodi:namedview
     id="base"
     pagecolor="#ffffff"
     bordercolor="#666666"
     borderopacity="1.0"
     inkscape:pageopacity="0.0"
     inkscape:pageshadow="2"
     inkscape:zoom="1.4"
     inkscape:cx="151.29316"
     inkscape:cy="392.28764"
     inkscape:document-units="mm"
     inkscape:current-layer="layer1"
     showgrid="false"
     units="px"
     inkscape:window-width="3840"
     inkscape:window-height="1961"
     inkscape:window-x="0"
     inkscape:window-y="57"
     inkscape:window-maximized="1" />
  <metadata
     id="metadata1399">
    <rdf:RDF>
      <cc:Work
         rdf:about="">
        <dc:format>image/svg+xml</dc:format>
        <dc:type
           rdf:resource="http://purl.org/dc/dcmitype/StillImage" />
        <dc:title></dc:title>
      </cc:Work>
    </rdf:RDF>
  </metadata>
  <g
     inkscape:label="Ebene 1"
     inkscape:groupmode="layer"
     id="layer1"
     transform="translate(0,-164.70832)">
    <text
       xml:space="preserve"
       style="font-style:normal;font-weight:normal;font-size:91.55005646px;line-height:1.25;font-family:sans-serif;letter-spacing:0px;word-spacing:0px;fill:#000000;fill-opacity:1;stroke:none;stroke-width:2.28875113"
       x="13.198016"
       y="214.47202"
       id="text1949"
       transform="scale(0.83121858,1.203053)"><tspan
         sodipodi:role="line"
         id="tspan1947"
         x="13.198016"
         y="295.47235"
         style="stroke-width:2.28875113" /></text>
    <text
       xml:space="preserve"
       style="font-style:normal;font-weight:normal;font-size:97.20330811px;line-height:1.25;font-family:sans-serif;letter-spacing:0px;word-spacing:0px;fill:#000000;fill-opacity:1;stroke:none;stroke-width:2.4300828"
       x="17.137997"
       y="300.1012"
       id="text2014"
       transform="scale(1.1023303,0.90716912)"><tspan
         sodipodi:role="line"
         id="tspan2012"
         x="17.137997"
         y="386.10333"
         style="stroke-width:2.4300828" /></text>
    <text
       xml:space="preserve"
       style="font-style:normal;font-weight:normal;font-size:94.62424469px;line-height:1.25;font-family:sans-serif;letter-spacing:0px;word-spacing:0px;fill:#000000;fill-opacity:1;stroke:none;stroke-width:0.4928346"
       x="15.053502"
       y="270.64124"
       id="text899"
       transform="scale(0.94226073,1.0612774)"><tspan
         sodipodi:role="line"
         id="tspan897"
         x="15.053502"
         y="270.64124"
         style="font-size:94.62424469px;stroke-width:0.4928346">𓎵</tspan></text>
  </g>
</svg>
