<?xml version="1.0" encoding="UTF-8" standalone="no"?>
<!-- Generator: Adobe Illustrator 19.0.0, SVG Export Plug-In . SVG Version: 6.00 Build 0)  -->

<svg
   xmlns:dc="http://purl.org/dc/elements/1.1/"
   xmlns:cc="http://creativecommons.org/ns#"
   xmlns:rdf="http://www.w3.org/1999/02/22-rdf-syntax-ns#"
   xmlns:svg="http://www.w3.org/2000/svg"
   xmlns="http://www.w3.org/2000/svg"
   xmlns:sodipodi="http://sodipodi.sourceforge.net/DTD/sodipodi-0.dtd"
   xmlns:inkscape="http://www.inkscape.org/namespaces/inkscape"
   version="1.1"
   id="Layer_1"
   x="0px"
   y="0px"
   viewBox="0 0 24 24"
   xml:space="preserve"
   sodipodi:docname="smiley04.svg"
   inkscape:version="0.92.4 (5da689c313, 2019-01-14)"
   width="24"
   height="24"><metadata
   id="metadata51"><rdf:RDF><cc:Work
       rdf:about=""><dc:format>image/svg+xml</dc:format><dc:type
         rdf:resource="http://purl.org/dc/dcmitype/StillImage" /><dc:title></dc:title></cc:Work></rdf:RDF></metadata><defs
   id="defs49" /><sodipodi:namedview
   pagecolor="#ffffff"
   bordercolor="#666666"
   borderopacity="1"
   objecttolerance="10"
   gridtolerance="10"
   guidetolerance="10"
   inkscape:pageopacity="0"
   inkscape:pageshadow="2"
   inkscape:window-width="2289"
   inkscape:window-height="1912"
   id="namedview47"
   showgrid="false"
   inkscape:zoom="7.6282828"
   inkscape:cx="38.112192"
   inkscape:cy="9.5515193"
   inkscape:window-x="0"
   inkscape:window-y="55"
   inkscape:window-maximized="0"
   inkscape:current-layer="Layer_1" />
<g
   id="g14"
   transform="matrix(0.03882652,0,0,0.03683773,2.3596398,2.7632421)">
	<path
   style="fill:#ffa733"
   d="m 247.5,0 v 355 c 44.83,0 85.38,-28.3 100.91,-70.43 l 37.53,13.84 C 364.64,356.18 309,395 247.5,395 V 495 C 384.19,495 495,384.19 495,247.5 495,110.81 384.19,0 247.5,0 Z m 76.014,241.486 c -22.056,0 -40,-17.944 -40,-40 0,-22.056 17.944,-40 40,-40 22.056,0 40,17.944 40,40 0,22.056 -17.945,40 -40,40 z"
   id="path2"
   inkscape:connector-curvature="0" />
	<path
   style="fill:#ffcd00"
   d="m 109.06,298.41 37.53,-13.84 C 162.12,326.7 202.67,355 247.5,355 V 0 C 110.81,0 0,110.81 0,247.5 0,384.19 110.81,495 247.5,495 V 395 C 186,395 130.36,356.18 109.06,298.41 Z m 62.426,-136.924 c 22.056,0 40,17.944 40,40 0,22.056 -17.944,40 -40,40 -22.056,0 -40,-17.944 -40,-40 0,-22.056 17.945,-40 40,-40 z"
   id="path4"
   inkscape:connector-curvature="0" />
	<path
   style="fill:#554431"
   d="m 323.514,161.486 c -22.056,0 -40,17.944 -40,40 0,22.056 17.944,40 40,40 22.056,0 40,-17.944 40,-40 0,-22.056 -17.945,-40 -40,-40 z"
   id="path6"
   inkscape:connector-curvature="0" />
	<path
   style="fill:#6a563d"
   d="m 171.486,241.486 c 22.056,0 40,-17.944 40,-40 0,-22.056 -17.944,-40 -40,-40 -22.056,0 -40,17.944 -40,40 0,22.056 17.945,40 40,40 z"
   id="path8"
   inkscape:connector-curvature="0" />
	<path
   style="fill:#ff5023"
   d="M 385.94,298.41 348.41,284.57 C 332.88,326.7 292.33,355 247.5,355 v 40 c 61.5,0 117.14,-38.82 138.44,-96.59 z"
   id="path10"
   inkscape:connector-curvature="0" />
	<path
   style="fill:#ff7956"
   d="m 146.59,284.57 -37.53,13.84 C 130.36,356.18 186,395 247.5,395 v -40 c -44.83,0 -85.38,-28.3 -100.91,-70.43 z"
   id="path12"
   inkscape:connector-curvature="0" />
</g>
<g
   id="g16"
   transform="translate(0,-471)">
</g>
<g
   id="g18"
   transform="translate(0,-471)">
</g>
<g
   id="g20"
   transform="translate(0,-471)">
</g>
<g
   id="g22"
   transform="translate(0,-471)">
</g>
<g
   id="g24"
   transform="translate(0,-471)">
</g>
<g
   id="g26"
   transform="translate(0,-471)">
</g>
<g
   id="g28"
   transform="translate(0,-471)">
</g>
<g
   id="g30"
   transform="translate(0,-471)">
</g>
<g
   id="g32"
   transform="translate(0,-471)">
</g>
<g
   id="g34"
   transform="translate(0,-471)">
</g>
<g
   id="g36"
   transform="translate(0,-471)">
</g>
<g
   id="g38"
   transform="translate(0,-471)">
</g>
<g
   id="g40"
   transform="translate(0,-471)">
</g>
<g
   id="g42"
   transform="translate(0,-471)">
</g>
<g
   id="g44"
   transform="translate(0,-471)">
</g>
</svg>